info face="Bitter" size=-24 bold=1 italic=0 charset="" unicode=1 stretchH=100 smooth=1 aa=2 padding=0,3,0,0 spacing=1,1 outline=0
common lineHeight=29 base=24 scaleW=256 scaleH=128 pages=1 packed=0 alphaChnl=1 redChnl=4 greenChnl=4 blueChnl=4
page id=0 file="bitterB_24_0.tga"
chars count=96
char id=-1   x=82    y=84    width=15    height=17    xoffset=0     yoffset=6     xadvance=12    page=0  chnl=15
char id=32   x=251   y=0     width=4     height=1     xoffset=0     yoffset=0     xadvance=5     page=0  chnl=15
char id=33   x=218   y=21    width=8     height=19    xoffset=1     yoffset=5     xadvance=8     page=0  chnl=15
char id=34   x=236   y=94    width=12    height=8     xoffset=1     yoffset=4     xadvance=10    page=0  chnl=15
char id=35   x=121   y=82    width=18    height=15    xoffset=1     yoffset=8     xadvance=17    page=0  chnl=15
char id=36   x=114   y=0     width=15    height=23    xoffset=1     yoffset=4     xadvance=13    page=0  chnl=15
char id=37   x=24    y=47    width=23    height=18    xoffset=1     yoffset=6     xadvance=22    page=0  chnl=15
char id=38   x=66    y=26    width=18    height=19    xoffset=1     yoffset=5     xadvance=16    page=0  chnl=15
char id=39   x=53    y=119   width=7     height=8     xoffset=1     yoffset=4     xadvance=6     page=0  chnl=15
char id=40   x=37    y=0     width=11    height=25    xoffset=1     yoffset=4     xadvance=8     page=0  chnl=15
char id=41   x=49    y=0     width=11    height=25    xoffset=0     yoffset=4     xadvance=8     page=0  chnl=15
char id=42   x=214   y=94    width=12    height=9     xoffset=0     yoffset=5     xadvance=10    page=0  chnl=15
char id=43   x=163   y=97    width=16    height=13    xoffset=1     yoffset=10    xadvance=15    page=0  chnl=15
char id=44   x=227   y=94    width=8     height=9     xoffset=0     yoffset=19    xadvance=7     page=0  chnl=15
char id=45   x=99    y=117   width=11    height=4     xoffset=1     yoffset=15    xadvance=9     page=0  chnl=15
char id=46   x=90    y=117   width=8     height=5     xoffset=1     yoffset=19    xadvance=7     page=0  chnl=15
char id=47   x=66    y=84    width=15    height=18    xoffset=0     yoffset=6     xadvance=12    page=0  chnl=15
char id=48   x=152   y=63    width=17    height=18    xoffset=1     yoffset=6     xadvance=15    page=0  chnl=15
char id=49   x=17    y=86    width=16    height=18    xoffset=0     yoffset=6     xadvance=13    page=0  chnl=15
char id=50   x=0     y=86    width=16    height=18    xoffset=0     yoffset=5     xadvance=14    page=0  chnl=15
char id=51   x=174   y=21    width=15    height=19    xoffset=0     yoffset=5     xadvance=14    page=0  chnl=15
char id=52   x=134   y=63    width=17    height=18    xoffset=0     yoffset=5     xadvance=15    page=0  chnl=15
char id=53   x=239   y=60    width=16    height=18    xoffset=0     yoffset=6     xadvance=13    page=0  chnl=15
char id=54   x=157   y=21    width=16    height=19    xoffset=1     yoffset=5     xadvance=15    page=0  chnl=15
char id=55   x=222   y=60    width=16    height=18    xoffset=0     yoffset=6     xadvance=12    page=0  chnl=15
char id=56   x=140   y=23    width=16    height=19    xoffset=0     yoffset=5     xadvance=15    page=0  chnl=15
char id=57   x=123   y=24    width=16    height=19    xoffset=0     yoffset=5     xadvance=15    page=0  chnl=15
char id=58   x=247   y=79    width=8     height=13    xoffset=1     yoffset=11    xadvance=7     page=0  chnl=15
char id=59   x=112   y=83    width=8     height=17    xoffset=1     yoffset=11    xadvance=7     page=0  chnl=15
char id=60   x=53    y=104   width=16    height=14    xoffset=0     yoffset=10    xadvance=14    page=0  chnl=15
char id=61   x=197   y=94    width=16    height=9     xoffset=0     yoffset=12    xadvance=14    page=0  chnl=15
char id=62   x=36    y=105   width=16    height=14    xoffset=0     yoffset=10    xadvance=14    page=0  chnl=15
char id=63   x=0     y=27    width=12    height=20    xoffset=1     yoffset=4     xadvance=11    page=0  chnl=15
char id=64   x=25    y=26    width=21    height=19    xoffset=0     yoffset=5     xadvance=19    page=0  chnl=15
char id=65   x=48    y=46    width=21    height=18    xoffset=0     yoffset=6     xadvance=18    page=0  chnl=15
char id=66   x=116   y=63    width=17    height=18    xoffset=0     yoffset=6     xadvance=16    page=0  chnl=15
char id=67   x=60    y=65    width=18    height=18    xoffset=1     yoffset=6     xadvance=16    page=0  chnl=15
char id=68   x=20    y=67    width=19    height=18    xoffset=1     yoffset=6     xadvance=17    page=0  chnl=15
char id=69   x=188   y=60    width=16    height=18    xoffset=1     yoffset=6     xadvance=15    page=0  chnl=15
char id=70   x=205   y=60    width=16    height=18    xoffset=1     yoffset=6     xadvance=14    page=0  chnl=15
char id=71   x=158   y=41    width=20    height=18    xoffset=1     yoffset=6     xadvance=18    page=0  chnl=15
char id=72   x=70    y=46    width=21    height=18    xoffset=0     yoffset=6     xadvance=19    page=0  chnl=15
char id=73   x=241   y=40    width=11    height=18    xoffset=1     yoffset=6     xadvance=9     page=0  chnl=15
char id=74   x=130   y=0     width=13    height=22    xoffset=-1    yoffset=6     xadvance=9     page=0  chnl=15
char id=75   x=200   y=41    width=20    height=18    xoffset=0     yoffset=6     xadvance=17    page=0  chnl=15
char id=76   x=50    y=85    width=15    height=18    xoffset=0     yoffset=6     xadvance=13    page=0  chnl=15
char id=77   x=0     y=48    width=23    height=18    xoffset=0     yoffset=6     xadvance=21    page=0  chnl=15
char id=78   x=92    y=45    width=21    height=18    xoffset=0     yoffset=6     xadvance=19    page=0  chnl=15
char id=79   x=40    y=66    width=19    height=18    xoffset=1     yoffset=6     xadvance=18    page=0  chnl=15
char id=80   x=170   y=60    width=17    height=18    xoffset=0     yoffset=6     xadvance=15    page=0  chnl=15
char id=81   x=90    y=0     width=23    height=23    xoffset=1     yoffset=6     xadvance=18    page=0  chnl=15
char id=82   x=0     y=67    width=19    height=18    xoffset=0     yoffset=6     xadvance=16    page=0  chnl=15
char id=83   x=190   y=21    width=15    height=19    xoffset=1     yoffset=5     xadvance=14    page=0  chnl=15
char id=84   x=79    y=65    width=18    height=18    xoffset=0     yoffset=6     xadvance=14    page=0  chnl=15
char id=85   x=114   y=44    width=21    height=18    xoffset=0     yoffset=6     xadvance=19    page=0  chnl=15
char id=86   x=179   y=41    width=20    height=18    xoffset=0     yoffset=6     xadvance=17    page=0  chnl=15
char id=87   x=227   y=21    width=28    height=18    xoffset=0     yoffset=6     xadvance=25    page=0  chnl=15
char id=88   x=136   y=44    width=21    height=18    xoffset=0     yoffset=6     xadvance=18    page=0  chnl=15
char id=89   x=221   y=41    width=19    height=18    xoffset=0     yoffset=6     xadvance=16    page=0  chnl=15
char id=90   x=98    y=64    width=17    height=18    xoffset=0     yoffset=6     xadvance=15    page=0  chnl=15
char id=91   x=61    y=0     width=10    height=25    xoffset=1     yoffset=4     xadvance=8     page=0  chnl=15
char id=92   x=34    y=86    width=15    height=18    xoffset=0     yoffset=6     xadvance=12    page=0  chnl=15
char id=93   x=72    y=0     width=9     height=25    xoffset=0     yoffset=4     xadvance=8     page=0  chnl=15
char id=94   x=180   y=97    width=16    height=10    xoffset=0     yoffset=6     xadvance=14    page=0  chnl=15
char id=95   x=111   y=116   width=15    height=3     xoffset=0     yoffset=25    xadvance=12    page=0  chnl=15
char id=96   x=61    y=119   width=11    height=7     xoffset=0     yoffset=2     xadvance=7     page=0  chnl=15
char id=97   x=140   y=82    width=16    height=15    xoffset=1     yoffset=9     xadvance=14    page=0  chnl=15
char id=98   x=163   y=0     width=17    height=20    xoffset=0     yoffset=4     xadvance=15    page=0  chnl=15
char id=99   x=87    y=102   width=15    height=14    xoffset=0     yoffset=9     xadvance=12    page=0  chnl=15
char id=100  x=47    y=26    width=18    height=19    xoffset=0     yoffset=4     xadvance=15    page=0  chnl=15
char id=101  x=103   y=101   width=15    height=14    xoffset=0     yoffset=9     xadvance=13    page=0  chnl=15
char id=102  x=235   y=0     width=15    height=20    xoffset=0     yoffset=3     xadvance=11    page=0  chnl=15
char id=103  x=217   y=0     width=17    height=20    xoffset=0     yoffset=10    xadvance=14    page=0  chnl=15
char id=104  x=104   y=24    width=18    height=19    xoffset=0     yoffset=4     xadvance=16    page=0  chnl=15
char id=105  x=13    y=26    width=11    height=20    xoffset=1     yoffset=4     xadvance=9     page=0  chnl=15
char id=106  x=0     y=0     width=10    height=26    xoffset=0     yoffset=4     xadvance=8     page=0  chnl=15
char id=107  x=85    y=25    width=18    height=19    xoffset=0     yoffset=4     xadvance=15    page=0  chnl=15
char id=108  x=206   y=21    width=11    height=19    xoffset=0     yoffset=4     xadvance=8     page=0  chnl=15
char id=109  x=157   y=82    width=26    height=14    xoffset=0     yoffset=10    xadvance=24    page=0  chnl=15
char id=110  x=209   y=79    width=18    height=14    xoffset=1     yoffset=10    xadvance=16    page=0  chnl=15
char id=111  x=70    y=103   width=16    height=14    xoffset=0     yoffset=9     xadvance=14    page=0  chnl=15
char id=112  x=199   y=0     width=17    height=20    xoffset=0     yoffset=9     xadvance=15    page=0  chnl=15
char id=113  x=181   y=0     width=17    height=20    xoffset=0     yoffset=9     xadvance=14    page=0  chnl=15
char id=114  x=119   y=101   width=14    height=14    xoffset=1     yoffset=10    xadvance=12    page=0  chnl=15
char id=115  x=134   y=98    width=14    height=14    xoffset=0     yoffset=9     xadvance=11    page=0  chnl=15
char id=116  x=98    y=83    width=13    height=17    xoffset=0     yoffset=6     xadvance=10    page=0  chnl=15
char id=117  x=228   y=79    width=18    height=14    xoffset=0     yoffset=10    xadvance=16    page=0  chnl=15
char id=118  x=0     y=105   width=17    height=14    xoffset=0     yoffset=10    xadvance=14    page=0  chnl=15
char id=119  x=184   y=79    width=24    height=14    xoffset=0     yoffset=10    xadvance=21    page=0  chnl=15
char id=120  x=18    y=105   width=17    height=14    xoffset=0     yoffset=10    xadvance=14    page=0  chnl=15
char id=121  x=144   y=0     width=18    height=20    xoffset=0     yoffset=10    xadvance=14    page=0  chnl=15
char id=122  x=149   y=98    width=13    height=14    xoffset=1     yoffset=10    xadvance=12    page=0  chnl=15
char id=123  x=24    y=0     width=12    height=25    xoffset=0     yoffset=4     xadvance=9     page=0  chnl=15
char id=124  x=82    y=0     width=7     height=24    xoffset=1     yoffset=5     xadvance=6     page=0  chnl=15
char id=125  x=11    y=0     width=12    height=25    xoffset=1     yoffset=4     xadvance=10    page=0  chnl=15
char id=126  x=73    y=118   width=16    height=6     xoffset=0     yoffset=13    xadvance=15    page=0  chnl=15
kernings count=32
kerning first=112 second=84  amount=-1  
kerning first=111 second=84  amount=-1  
kerning first=110 second=81  amount=-1  
kerning first=65  second=84  amount=-1  
kerning first=110 second=79  amount=-1  
kerning first=110 second=71  amount=-1  
kerning first=110 second=67  amount=-1  
kerning first=110 second=84  amount=-1  
kerning first=109 second=81  amount=-1  
kerning first=65  second=86  amount=-1  
kerning first=65  second=87  amount=-1  
kerning first=65  second=85  amount=-1  
kerning first=109 second=79  amount=-1  
kerning first=109 second=71  amount=-1  
kerning first=109 second=67  amount=-1  
kerning first=109 second=84  amount=-1  
kerning first=104 second=81  amount=-1  
kerning first=104 second=79  amount=-1  
kerning first=104 second=71  amount=-1  
kerning first=104 second=67  amount=-1  
kerning first=104 second=84  amount=-1  
kerning first=97  second=84  amount=-1  
kerning first=66  second=84  amount=-1  
kerning first=87  second=65  amount=-1  
kerning first=86  second=65  amount=-1  
kerning first=69  second=65  amount=-1  
kerning first=70  second=65  amount=-1  
kerning first=84  second=65  amount=-1  
kerning first=71  second=65  amount=-1  
kerning first=76  second=87  amount=-1  
kerning first=76  second=89  amount=-1  
kerning first=76  second=86  amount=-1  
