info face="Bitter" size=-24 bold=1 italic=1 charset="" unicode=1 stretchH=100 smooth=1 aa=2 padding=0,3,0,0 spacing=1,1 outline=0
common lineHeight=29 base=24 scaleW=256 scaleH=128 pages=1 packed=0 alphaChnl=1 redChnl=4 greenChnl=4 blueChnl=4
page id=0 file="bitterBI_24_0.tga"
chars count=96
char id=-1   x=129   y=84    width=16    height=17    xoffset=1     yoffset=6     xadvance=13    page=0  chnl=15
char id=32   x=186   y=21    width=4     height=1     xoffset=0     yoffset=0     xadvance=7     page=0  chnl=15
char id=33   x=244   y=21    width=10    height=19    xoffset=1     yoffset=5     xadvance=8     page=0  chnl=15
char id=34   x=115   y=118   width=13    height=8     xoffset=1     yoffset=4     xadvance=11    page=0  chnl=15
char id=35   x=171   y=82    width=19    height=15    xoffset=0     yoffset=8     xadvance=16    page=0  chnl=15
char id=36   x=153   y=0     width=16    height=23    xoffset=0     yoffset=5     xadvance=13    page=0  chnl=15
char id=37   x=126   y=46    width=21    height=18    xoffset=1     yoffset=6     xadvance=19    page=0  chnl=15
char id=38   x=54    y=26    width=18    height=19    xoffset=1     yoffset=5     xadvance=16    page=0  chnl=15
char id=39   x=129   y=118   width=8     height=8     xoffset=2     yoffset=4     xadvance=5     page=0  chnl=15
char id=40   x=93    y=0     width=13    height=25    xoffset=1     yoffset=4     xadvance=8     page=0  chnl=15
char id=41   x=107   y=0     width=13    height=25    xoffset=-2    yoffset=4     xadvance=8     page=0  chnl=15
char id=42   x=92    y=118   width=12    height=9     xoffset=1     yoffset=5     xadvance=10    page=0  chnl=15
char id=43   x=210   y=97    width=17    height=13    xoffset=0     yoffset=10    xadvance=15    page=0  chnl=15
char id=44   x=105   y=118   width=9     height=9     xoffset=-1    yoffset=19    xadvance=6     page=0  chnl=15
char id=45   x=176   y=115   width=11    height=4     xoffset=0     yoffset=15    xadvance=9     page=0  chnl=15
char id=46   x=167   y=115   width=8     height=5     xoffset=0     yoffset=19    xadvance=7     page=0  chnl=15
char id=47   x=18    y=86    width=17    height=18    xoffset=0     yoffset=6     xadvance=11    page=0  chnl=15
char id=48   x=53    y=86    width=16    height=18    xoffset=1     yoffset=6     xadvance=15    page=0  chnl=15
char id=49   x=87    y=84    width=14    height=18    xoffset=0     yoffset=6     xadvance=12    page=0  chnl=15
char id=50   x=0     y=86    width=17    height=18    xoffset=0     yoffset=5     xadvance=13    page=0  chnl=15
char id=51   x=164   y=24    width=17    height=19    xoffset=0     yoffset=5     xadvance=13    page=0  chnl=15
char id=52   x=235   y=60    width=17    height=18    xoffset=0     yoffset=5     xadvance=14    page=0  chnl=15
char id=53   x=217   y=60    width=17    height=18    xoffset=0     yoffset=6     xadvance=13    page=0  chnl=15
char id=54   x=216   y=21    width=16    height=19    xoffset=1     yoffset=5     xadvance=14    page=0  chnl=15
char id=55   x=36    y=86    width=16    height=18    xoffset=0     yoffset=6     xadvance=12    page=0  chnl=15
char id=56   x=146   y=24    width=17    height=19    xoffset=0     yoffset=5     xadvance=14    page=0  chnl=15
char id=57   x=199   y=21    width=16    height=19    xoffset=0     yoffset=5     xadvance=14    page=0  chnl=15
char id=58   x=228   y=96    width=9     height=13    xoffset=0     yoffset=11    xadvance=6     page=0  chnl=15
char id=59   x=160   y=82    width=10    height=17    xoffset=-1    yoffset=11    xadvance=7     page=0  chnl=15
char id=60   x=74    y=103   width=17    height=14    xoffset=1     yoffset=10    xadvance=14    page=0  chnl=15
char id=61   x=74    y=118   width=17    height=9     xoffset=1     yoffset=12    xadvance=15    page=0  chnl=15
char id=62   x=56    y=105   width=17    height=14    xoffset=0     yoffset=10    xadvance=14    page=0  chnl=15
char id=63   x=18    y=27    width=13    height=20    xoffset=1     yoffset=4     xadvance=11    page=0  chnl=15
char id=64   x=32    y=27    width=21    height=19    xoffset=1     yoffset=5     xadvance=19    page=0  chnl=15
char id=65   x=214   y=41    width=20    height=18    xoffset=-1    yoffset=6     xadvance=17    page=0  chnl=15
char id=66   x=61    y=65    width=19    height=18    xoffset=0     yoffset=6     xadvance=15    page=0  chnl=15
char id=67   x=81    y=65    width=19    height=18    xoffset=1     yoffset=6     xadvance=15    page=0  chnl=15
char id=68   x=235   y=41    width=20    height=18    xoffset=0     yoffset=6     xadvance=17    page=0  chnl=15
char id=69   x=160   y=63    width=18    height=18    xoffset=0     yoffset=6     xadvance=14    page=0  chnl=15
char id=70   x=179   y=63    width=18    height=18    xoffset=0     yoffset=6     xadvance=13    page=0  chnl=15
char id=71   x=0     y=67    width=20    height=18    xoffset=1     yoffset=6     xadvance=17    page=0  chnl=15
char id=72   x=55    y=46    width=23    height=18    xoffset=0     yoffset=6     xadvance=19    page=0  chnl=15
char id=73   x=102   y=84    width=13    height=18    xoffset=0     yoffset=6     xadvance=9     page=0  chnl=15
char id=74   x=170   y=0     width=15    height=22    xoffset=-2    yoffset=6     xadvance=9     page=0  chnl=15
char id=75   x=170   y=44    width=21    height=18    xoffset=0     yoffset=6     xadvance=16    page=0  chnl=15
char id=76   x=70    y=84    width=16    height=18    xoffset=0     yoffset=6     xadvance=12    page=0  chnl=15
char id=77   x=29    y=48    width=25    height=18    xoffset=0     yoffset=6     xadvance=20    page=0  chnl=15
char id=78   x=79    y=46    width=23    height=18    xoffset=0     yoffset=6     xadvance=18    page=0  chnl=15
char id=79   x=101   y=65    width=19    height=18    xoffset=1     yoffset=6     xadvance=17    page=0  chnl=15
char id=80   x=41    y=67    width=19    height=18    xoffset=0     yoffset=6     xadvance=14    page=0  chnl=15
char id=81   x=132   y=0     width=20    height=23    xoffset=1     yoffset=6     xadvance=18    page=0  chnl=15
char id=82   x=121   y=65    width=19    height=18    xoffset=0     yoffset=6     xadvance=15    page=0  chnl=15
char id=83   x=92    y=26    width=17    height=19    xoffset=0     yoffset=5     xadvance=14    page=0  chnl=15
char id=84   x=198   y=62    width=18    height=18    xoffset=0     yoffset=6     xadvance=14    page=0  chnl=15
char id=85   x=148   y=44    width=21    height=18    xoffset=2     yoffset=6     xadvance=18    page=0  chnl=15
char id=86   x=192   y=43    width=21    height=18    xoffset=0     yoffset=6     xadvance=16    page=0  chnl=15
char id=87   x=0     y=48    width=28    height=18    xoffset=0     yoffset=6     xadvance=23    page=0  chnl=15
char id=88   x=103   y=46    width=22    height=18    xoffset=-1    yoffset=6     xadvance=16    page=0  chnl=15
char id=89   x=21    y=67    width=19    height=18    xoffset=0     yoffset=6     xadvance=15    page=0  chnl=15
char id=90   x=141   y=65    width=18    height=18    xoffset=0     yoffset=6     xadvance=14    page=0  chnl=15
char id=91   x=65    y=0     width=13    height=25    xoffset=0     yoffset=4     xadvance=8     page=0  chnl=15
char id=92   x=116   y=84    width=12    height=18    xoffset=1     yoffset=6     xadvance=12    page=0  chnl=15
char id=93   x=79    y=0     width=13    height=25    xoffset=-1    yoffset=4     xadvance=8     page=0  chnl=15
char id=94   x=238   y=96    width=15    height=10    xoffset=0     yoffset=6     xadvance=13    page=0  chnl=15
char id=95   x=188   y=113   width=15    height=3     xoffset=-1    yoffset=25    xadvance=12    page=0  chnl=15
char id=96   x=138   y=118   width=11    height=7     xoffset=1     yoffset=2     xadvance=7     page=0  chnl=15
char id=97   x=38    y=105   width=17    height=14    xoffset=0     yoffset=9     xadvance=15    page=0  chnl=15
char id=98   x=182   y=23    width=16    height=19    xoffset=1     yoffset=4     xadvance=14    page=0  chnl=15
char id=99   x=162   y=100   width=15    height=14    xoffset=0     yoffset=9     xadvance=11    page=0  chnl=15
char id=100  x=73    y=26    width=18    height=19    xoffset=0     yoffset=4     xadvance=14    page=0  chnl=15
char id=101  x=128   y=103   width=16    height=14    xoffset=0     yoffset=9     xadvance=12    page=0  chnl=15
char id=102  x=0     y=0     width=19    height=26    xoffset=-2    yoffset=3     xadvance=9     page=0  chnl=15
char id=103  x=226   y=0     width=17    height=20    xoffset=0     yoffset=9     xadvance=14    page=0  chnl=15
char id=104  x=128   y=25    width=17    height=19    xoffset=0     yoffset=4     xadvance=15    page=0  chnl=15
char id=105  x=244   y=0     width=10    height=20    xoffset=1     yoffset=4     xadvance=8     page=0  chnl=15
char id=106  x=20    y=0     width=14    height=26    xoffset=-3    yoffset=4     xadvance=8     page=0  chnl=15
char id=107  x=110   y=26    width=17    height=19    xoffset=0     yoffset=4     xadvance=13    page=0  chnl=15
char id=108  x=233   y=21    width=10    height=19    xoffset=0     yoffset=4     xadvance=7     page=0  chnl=15
char id=109  x=191   y=82    width=24    height=14    xoffset=0     yoffset=9     xadvance=22    page=0  chnl=15
char id=110  x=92    y=103   width=17    height=14    xoffset=0     yoffset=10    xadvance=15    page=0  chnl=15
char id=111  x=145   y=102   width=16    height=14    xoffset=0     yoffset=9     xadvance=14    page=0  chnl=15
char id=112  x=206   y=0     width=19    height=20    xoffset=-1    yoffset=9     xadvance=15    page=0  chnl=15
char id=113  x=0     y=27    width=17    height=20    xoffset=0     yoffset=9     xadvance=14    page=0  chnl=15
char id=114  x=178   y=98    width=15    height=14    xoffset=0     yoffset=10    xadvance=10    page=0  chnl=15
char id=115  x=241   y=79    width=14    height=14    xoffset=0     yoffset=10    xadvance=11    page=0  chnl=15
char id=116  x=146   y=84    width=13    height=17    xoffset=0     yoffset=6     xadvance=9     page=0  chnl=15
char id=117  x=110   y=103   width=17    height=14    xoffset=0     yoffset=10    xadvance=15    page=0  chnl=15
char id=118  x=0     y=105   width=18    height=14    xoffset=0     yoffset=10    xadvance=13    page=0  chnl=15
char id=119  x=216   y=81    width=24    height=14    xoffset=0     yoffset=10    xadvance=19    page=0  chnl=15
char id=120  x=19    y=105   width=18    height=14    xoffset=0     yoffset=10    xadvance=13    page=0  chnl=15
char id=121  x=186   y=0     width=19    height=20    xoffset=0     yoffset=10    xadvance=13    page=0  chnl=15
char id=122  x=194   y=97    width=15    height=14    xoffset=0     yoffset=10    xadvance=12    page=0  chnl=15
char id=123  x=50    y=0     width=14    height=25    xoffset=0     yoffset=4     xadvance=9     page=0  chnl=15
char id=124  x=121   y=0     width=10    height=24    xoffset=0     yoffset=5     xadvance=7     page=0  chnl=15
char id=125  x=35    y=0     width=14    height=25    xoffset=-1    yoffset=4     xadvance=9     page=0  chnl=15
char id=126  x=150   y=117   width=16    height=6     xoffset=1     yoffset=13    xadvance=15    page=0  chnl=15
kernings count=49
kerning first=65  second=84  amount=-1  
kerning first=112 second=89  amount=-1  
kerning first=65  second=118 amount=-1  
kerning first=65  second=119 amount=-1  
kerning first=111 second=89  amount=-1  
kerning first=110 second=81  amount=-1  
kerning first=68  second=87  amount=-1  
kerning first=70  second=65  amount=-1  
kerning first=110 second=79  amount=-1  
kerning first=110 second=71  amount=-1  
kerning first=110 second=67  amount=-1  
kerning first=79  second=87  amount=-1  
kerning first=80  second=65  amount=-1  
kerning first=109 second=81  amount=-1  
kerning first=81  second=87  amount=-1  
kerning first=84  second=65  amount=-1  
kerning first=86  second=87  amount=1   
kerning first=87  second=67  amount=-1  
kerning first=87  second=71  amount=-1  
kerning first=109 second=79  amount=-1  
kerning first=87  second=79  amount=-1  
kerning first=87  second=81  amount=-1  
kerning first=87  second=86  amount=1   
kerning first=87  second=87  amount=1   
kerning first=109 second=71  amount=-1  
kerning first=109 second=67  amount=-1  
kerning first=104 second=81  amount=-1  
kerning first=104 second=79  amount=-1  
kerning first=104 second=71  amount=-1  
kerning first=104 second=67  amount=-1  
kerning first=87  second=87  amount=1   
kerning first=87  second=86  amount=1   
kerning first=86  second=87  amount=1   
kerning first=86  second=86  amount=1   
kerning first=84  second=65  amount=-1  
kerning first=81  second=84  amount=-1  
kerning first=80  second=65  amount=-1  
kerning first=79  second=84  amount=-1  
kerning first=76  second=105 amount=-1  
kerning first=76  second=117 amount=-1  
kerning first=65  second=84  amount=-1  
kerning first=76  second=65  amount=1   
kerning first=69  second=65  amount=-1  
kerning first=68  second=84  amount=-1  
kerning first=65  second=81  amount=-1  
kerning first=65  second=79  amount=-1  
kerning first=65  second=71  amount=-1  
kerning first=65  second=67  amount=-1  
kerning first=65  second=97  amount=-1  
